…
``` r
Long <- all7 %>%
  pivot_longer(a_memorig:g_vote6,names_to="variable",values_to = "value") %>% 
  separate(variable,into = c("wave","variable"),sep = "_",extra = "merge") %>% 
  pivot_wider(names_from = variable,values_from = value)
  
Long
```

    ## # A tibble: 584,234 x 6
    ##        pidp wave  memorig sex_dv age_dv vote6
    ##       <int> <chr>   <int>  <int>  <int> <int>
    ##  1 68001367 a           1      1     39     3
    ##  2 68001367 b          NA     NA     NA    NA
    ##  3 68001367 c          NA     NA     NA    NA
    ##  4 68001367 d          NA     NA     NA    NA
    ##  5 68001367 e          NA     NA     NA    NA
    ##  6 68001367 f          NA     NA     NA    NA
    ##  7 68001367 g          NA     NA     NA    NA
    ##  8 68004087 a           1      1     59     2
    ##  9 68004087 b           1      1     60     2
    ## 10 68004087 c           1      1     61     2
    ## # … with 584,224 more rows
…
balanced<- all7%>% 
  filter(complete.cases(a_vote6,b_vote6,c_vote6,d_vote6,e_vote6,f_vote6,g_vote6))

#the balanced panel has 18731 observations and 29 variables 

#2. Calculate Delta for each person in the data set

deltaEach<-balanced %>% 
  mutate(deltaEach=abs(b_vote6-a_vote6)+abs(c_vote6-b_vote6)+abs(d_vote6-c_vote6)+abs(e_vote6-d_vote6)+abs(f_vote6-e_vote6)+abs(g_vote6-f_vote6))

deltaEach %>% 
  count(deltaEach)
```

    ## # A tibble: 50 x 2
    ##    deltaEach     n
    ##        <int> <int>
    ##  1         0  3376
    ##  2         1  2058
    ##  3         2  3563
    ##  4         3  2770
    ##  5         4  2502
    ##  6         5  1264
    ##  7         6   843
    ##  8         7   373
    ##  9         8   215
    ## 10         9   179
    ## # … with 40 more rows
…
``` r
#4. Calculate mean Delta by age (at wave 1) and plot the local polynomial curve showing the association between age at wave 1 and mean Delta. You can use either **ggplot2** or the *scatter.smooth()* function from base R.

delta.age <- deltaEach%>%
  group_by(a_age_dv) %>%
  summarise(
    DeltaAge = mean(deltaEach, na.rm = TRUE)
  )

delta.age
```

    ## # A tibble: 80 x 2
    ##    a_age_dv DeltaAge
    ##       <int>    <dbl>
    ##  1       15    19.4 
    ##  2       16     8.36
    ##  3       17     6.31
    ##  4       18     9.73
    ##  5       19     7.35
    ##  6       20     5.32
    ##  7       21     5.65
    ##  8       22     5.26
    ##  9       23     4.36
    ## 10       24     4.02
    ## # … with 70 more rows
…
